{
  "_class": "group",
  "do_objectID": "8A990DA7-0704-43A7-9D1B-35016A2A5F24",
  "exportOptions": {
    "_class": "exportOptions",
    "exportFormats": [
    ],
    "includedLayerIds": [
    ],
    "layerOptions": 0,
    "shouldTrim": false
  },
  "frame": {
    "_class": "rect",
    "constrainProportions": false,
    "height": 1642,
    "width": 97,
    "x": 462,
    "y": 120
  },
  "hasClickThrough": false,
  "isFlippedHorizontal": false,
  "isFlippedVertical": false,
  "isLocked": false,
  "isVisible": true,
  "layerListExpandedType": 0,
  "layers": [
    {
      "class": "shapeGroup",
      "id": "EF0FF063-9AA3-498A-AE08-11CD3E0404D7"
    },
    {
      "class": "shapeGroup",
      "id": "45DD7341-AEB1-4028-8818-7E8C7FEDF955"
    },
    {
      "class": "shapeGroup",
      "id": "F9BED521-5E32-4B27-974F-2DB2EECA66D9"
    },
    {
      "class": "shapeGroup",
      "id": "0415D89B-E371-4464-874D-88ADBB9BAADD"
    },
    {
      "class": "group",
      "id": "0BD76286-00FA-40CF-AEF5-31C0A0A176E8"
    }
  ],
  "name": "milestone copy",
  "nameIsFixed": true,
  "resizingConstraint": 63,
  "resizingType": 0,
  "rotation": 0,
  "shouldBreakMaskChain": false,
  "style": {
    "_class": "style",
    "endDecorationType": 0,
    "miterLimit": 10,
    "startDecorationType": 0
  }
}