{
  "_class": "shapeGroup",
  "clippingMaskMode": 0,
  "do_objectID": "FF169F50-6A51-4361-932E-866C6B99F152",
  "exportOptions": {
    "_class": "exportOptions",
    "exportFormats": [
    ],
    "includedLayerIds": [
    ],
    "layerOptions": 0,
    "shouldTrim": false
  },
  "frame": {
    "_class": "rect",
    "constrainProportions": false,
    "height": 4,
    "width": 4,
    "x": 457,
    "y": 0
  },
  "hasClickThrough": false,
  "hasClippingMask": false,
  "isFlippedHorizontal": false,
  "isFlippedVertical": false,
  "isLocked": false,
  "isVisible": true,
  "layerListExpandedType": 0,
  "layers": [
    {
      "class": "rectangle",
      "id": "14011C34-A55E-489C-91C3-659443B27A8D"
    }
  ],
  "name": "Rectangle 5 Copy 9",
  "nameIsFixed": false,
  "resizingConstraint": 63,
  "resizingType": 0,
  "rotation": 0,
  "shouldBreakMaskChain": false,
  "style": {
    "sharedObjectID": "09334668-4522-4969-99CC-2D060C8F8009"
  },
  "windingRule": 1
}