{
  "_class": "group",
  "do_objectID": "9AA32D24-2203-43CB-892F-96A980C5289C",
  "exportOptions": {
    "_class": "exportOptions",
    "exportFormats": [
    ],
    "includedLayerIds": [
    ],
    "layerOptions": 0,
    "shouldTrim": false
  },
  "frame": {
    "_class": "rect",
    "constrainProportions": false,
    "height": 160,
    "width": 908,
    "x": 476,
    "y": 169
  },
  "hasClickThrough": false,
  "isFlippedHorizontal": false,
  "isFlippedVertical": false,
  "isLocked": false,
  "isVisible": true,
  "layerListExpandedType": 0,
  "layers": [
    {
      "class": "shapeGroup",
      "id": "CA4FF80D-F054-491D-B871-211B56AB8F1D"
    },
    {
      "class": "shapeGroup",
      "id": "6C342917-DBB5-4D25-87DE-BB5CA3F9BB19"
    },
    {
      "class": "shapeGroup",
      "id": "9EAC24BB-6DE3-45DB-B117-A35FBFCB4292"
    },
    {
      "class": "shapeGroup",
      "id": "EA08D6A0-A87C-44D7-91B9-713E49F47A3B"
    },
    {
      "class": "shapeGroup",
      "id": "9D647F7D-D502-4F36-810D-247819D38C9E"
    },
    {
      "class": "text",
      "id": "998DF8A9-6F1D-4E5C-9F8A-E8996C7578EB"
    },
    {
      "class": "group",
      "id": "316D0F60-7853-4527-9925-93F005DD0401"
    },
    {
      "class": "group",
      "id": "23BE4DDE-5A30-409A-AE71-2ADBE4C82E8B"
    },
    {
      "class": "group",
      "id": "24F78266-9A52-46CD-BF48-5A222CEA5D1B"
    },
    {
      "class": "group",
      "id": "DC012C01-AAFA-4A1A-9F20-874B1E1B0F6C"
    }
  ],
  "name": "Expanded epic",
  "nameIsFixed": true,
  "resizingConstraint": 63,
  "resizingType": 0,
  "rotation": 0,
  "shouldBreakMaskChain": false,
  "style": {
    "_class": "style",
    "endDecorationType": 0,
    "miterLimit": 10,
    "startDecorationType": 0
  }
}