{
  "_class": "group",
  "do_objectID": "C08C9D1B-F0CC-426E-9551-EDC8EAB64481",
  "exportOptions": {
    "_class": "exportOptions",
    "exportFormats": [
    ],
    "includedLayerIds": [
    ],
    "layerOptions": 0,
    "shouldTrim": false
  },
  "frame": {
    "_class": "rect",
    "constrainProportions": false,
    "height": 18,
    "width": 19,
    "x": 185,
    "y": 11
  },
  "hasClickThrough": false,
  "isFlippedHorizontal": false,
  "isFlippedVertical": false,
  "isLocked": false,
  "isVisible": true,
  "layerListExpandedType": 0,
  "layers": [
    {
      "class": "shapeGroup",
      "id": "E4CC9411-049F-4E34-936E-9F4BDCE91D72"
    },
    {
      "class": "text",
      "id": "E07D03B9-A442-4279-8F51-C2BA026B12E7"
    }
  ],
  "name": "💡badge",
  "nameIsFixed": false,
  "resizingConstraint": 63,
  "resizingType": 0,
  "rotation": 0,
  "shouldBreakMaskChain": false,
  "style": {
    "_class": "style",
    "endDecorationType": 0,
    "miterLimit": 10,
    "startDecorationType": 0
  }
}