{
  "_class": "group",
  "do_objectID": "A8A5EEB2-946E-440C-B812-9F1F7B8A76A4",
  "exportOptions": {
    "_class": "exportOptions",
    "exportFormats": [
    ],
    "includedLayerIds": [
    ],
    "layerOptions": 0,
    "shouldTrim": false
  },
  "frame": {
    "_class": "rect",
    "constrainProportions": false,
    "height": 28,
    "width": 647,
    "x": 607,
    "y": 862
  },
  "hasClickThrough": false,
  "isFlippedHorizontal": false,
  "isFlippedVertical": false,
  "isLocked": false,
  "isVisible": true,
  "layerListExpandedType": 2,
  "layers": [
    {
      "class": "shapeGroup",
      "id": "7B64CD00-343B-4CA4-BD91-07AB1AA75323"
    },
    {
      "class": "shapeGroup",
      "id": "6FEB4025-4E7A-4549-86AD-3FC53A491C70"
    },
    {
      "class": "shapeGroup",
      "id": "2DC0166C-B408-448E-BB7C-20A8D4BF3C5F"
    },
    {
      "class": "text",
      "id": "F997139A-0BD4-42C8-8176-45E3478EC98E"
    }
  ],
  "name": "new_epic copy 12",
  "nameIsFixed": true,
  "resizingConstraint": 63,
  "resizingType": 0,
  "rotation": 0,
  "shouldBreakMaskChain": false,
  "style": {
    "_class": "style",
    "endDecorationType": 0,
    "miterLimit": 10,
    "startDecorationType": 0
  }
}