<?xml version="1.0" encoding="UTF-8"?>
<svg width="16px" height="16px" viewBox="0 0 16 16" version="1.1" xmlns="http://www.w3.org/2000/svg" xmlns:xlink="http://www.w3.org/1999/xlink">
    <!-- Generator: Sketch 62 (91390) - https://sketch.com -->
    <title>icn/chevron-lg-up</title>
    <desc>Created with Sketch.</desc>
    <g id="icn/chevron-lg-up" stroke="none" stroke-width="1" fill="none" fill-rule="evenodd">
        <path d="M12.2929,10.7071 C12.6834,11.0976 13.3166,11.0976 13.7071,10.7071 C14.0976,10.3166 14.0976,9.68342 13.7071,9.29289 L8.70711,4.29289 C8.31658,3.90237 7.68342,3.90237 7.29289,4.29289 L2.29289,9.29289 C1.90237,9.68342 1.90237,10.3166 2.29289,10.7071 C2.68342,11.0976 3.31658,11.0976 3.70711,10.7071 L8,6.41421 L12.2929,10.7071 Z" id="icon" fill="#000000"></path>
    </g>
</svg>