<?xml version="1.0" encoding="UTF-8"?>
<svg width="152px" height="17px" viewBox="0 0 152 17" version="1.1" xmlns="http://www.w3.org/2000/svg" xmlns:xlink="http://www.w3.org/1999/xlink">
    <!-- Generator: Sketch 60.1 (88133) - https://sketch.com -->
    <title>CustomersPortal@2x</title>
    <desc>Created with Sketch.</desc>
    <g id="Page-1" stroke="none" stroke-width="1" fill="none" fill-rule="evenodd">
        <path d="M6.601,16.652 C7.567,16.652 8.42566667,16.4603333 9.177,16.077 C9.92833333,15.6936667 10.603,15.157 11.201,14.467 L11.201,14.467 L10.12,13.294 C9.62933333,13.8306667 9.11183333,14.2446667 8.5675,14.536 C8.02316667,14.8273333 7.383,14.973 6.647,14.973 C5.92633333,14.973 5.2785,14.8273333 4.7035,14.536 C4.1285,14.2446667 3.64166667,13.8306667 3.243,13.294 C2.84433333,12.7573333 2.53383333,12.1095 2.3115,11.3505 C2.08916667,10.5915 1.978,9.73666667 1.978,8.786 C1.978,7.85066667 2.093,7.00733333 2.323,6.256 C2.553,5.50466667 2.875,4.8645 3.289,4.3355 C3.703,3.8065 4.20133333,3.40016667 4.784,3.1165 C5.36666667,2.83283333 6.01833333,2.691 6.739,2.691 C7.383,2.691 7.9465,2.8175 8.4295,3.0705 C8.9125,3.3235 9.35333333,3.66466667 9.752,4.094 L9.752,4.094 L10.833,2.875 C10.3883333,2.38433333 9.821,1.95116667 9.131,1.5755 C8.441,1.19983333 7.636,1.012 6.716,1.012 C5.75,1.012 4.85683333,1.19216667 4.0365,1.5525 C3.21616667,1.91283333 2.507,2.43033333 1.909,3.105 C1.311,3.77966667 0.843333333,4.6 0.506,5.566 C0.168666667,6.532 0,7.62066667 0,8.832 C0,10.0586667 0.164833333,11.1588333 0.4945,12.1325 C0.824166667,13.1061667 1.28416667,13.9265 1.8745,14.5935 C2.46483333,15.2605 3.1625,15.7703333 3.9675,16.123 C4.7725,16.4756667 5.65033333,16.652 6.601,16.652 Z M15.9006667,16.652 C16.6826667,16.652 17.3611667,16.468 17.9361667,16.1 C18.5111667,15.732 19.0593333,15.2413333 19.5806667,14.628 L19.5806667,14.628 L19.6496667,14.628 L19.8106667,16.376 L21.3746667,16.376 L21.3746667,5.198 L19.4886667,5.198 L19.4886667,13.133 C18.952,13.7923333 18.4613333,14.2715 18.0166667,14.5705 C17.572,14.8695 17.0583333,15.019 16.4756667,15.019 C15.7396667,15.019 15.2068333,14.7851667 14.8771667,14.3175 C14.5475,13.8498333 14.3826667,13.087 14.3826667,12.029 L14.3826667,12.029 L14.3826667,5.198 L12.4736667,5.198 L12.4736667,12.282 C12.4736667,13.7233333 12.7458333,14.812 13.2901667,15.548 C13.8345,16.284 14.7046667,16.652 15.9006667,16.652 Z M27.1093333,16.652 C27.7686667,16.652 28.3551667,16.5638333 28.8688333,16.3875 C29.3825,16.2111667 29.8118333,15.9696667 30.1568333,15.663 C30.5018333,15.3563333 30.7625,15.0036667 30.9388333,14.605 C31.1151667,14.2063333 31.2033333,13.777 31.2033333,13.317 C31.2033333,12.7956667 31.0998333,12.351 30.8928333,11.983 C30.6858333,11.615 30.4213333,11.3045 30.0993333,11.0515 C29.7773333,10.7985 29.4131667,10.5876667 29.0068333,10.419 C28.6005,10.2503333 28.198,10.0893333 27.7993333,9.936 C27.4773333,9.81333333 27.1668333,9.6945 26.8678333,9.5795 C26.5688333,9.4645 26.3043333,9.33416667 26.0743333,9.1885 C25.8443333,9.04283333 25.6603333,8.87416667 25.5223333,8.6825 C25.3843333,8.49083333 25.3153333,8.26466667 25.3153333,8.004 C25.3153333,7.57466667 25.4801667,7.199 25.8098333,6.877 C26.1395,6.555 26.657,6.394 27.3623333,6.394 C27.853,6.394 28.3053333,6.486 28.7193333,6.67 C29.1333333,6.854 29.532,7.09166667 29.9153333,7.383 L29.9153333,7.383 L30.8123333,6.187 C30.383,5.83433333 29.8731667,5.53533333 29.2828333,5.29 C28.6925,5.04466667 28.0446667,4.922 27.3393333,4.922 C26.7413333,4.922 26.2046667,5.0025 25.7293333,5.1635 C25.254,5.3245 24.8515,5.54683333 24.5218333,5.8305 C24.1921667,6.11416667 23.9391667,6.4515 23.7628333,6.8425 C23.5865,7.2335 23.4983333,7.65133333 23.4983333,8.096 C23.4983333,8.57133333 23.598,8.97766667 23.7973333,9.315 C23.9966667,9.65233333 24.2535,9.9475 24.5678333,10.2005 C24.8821667,10.4535 25.2386667,10.6681667 25.6373333,10.8445 C26.036,11.0208333 26.4346667,11.178 26.8333333,11.316 C27.14,11.4386667 27.4466667,11.5613333 27.7533333,11.684 C28.06,11.8066667 28.3321667,11.9485 28.5698333,12.1095 C28.8075,12.2705 29.003,12.4583333 29.1563333,12.673 C29.3096667,12.8876667 29.3863333,13.1406667 29.3863333,13.432 C29.3863333,13.9226667 29.2023333,14.3366667 28.8343333,14.674 C28.4663333,15.0113333 27.9143333,15.18 27.1783333,15.18 C26.5036667,15.18 25.9095,15.0573333 25.3958333,14.812 C24.8821667,14.5666667 24.38,14.2446667 23.8893333,13.846 L23.8893333,13.846 L22.9463333,15.111 C23.483,15.5556667 24.1116667,15.9236667 24.8323333,16.215 C25.553,16.5063333 26.312,16.652 27.1093333,16.652 Z M36.386,16.652 C36.7386667,16.652 37.0951667,16.6098333 37.4555,16.5255 C37.8158333,16.4411667 38.1493333,16.3453333 38.456,16.238 L38.456,16.238 L38.088,14.812 C37.904,14.8886667 37.697,14.9576667 37.467,15.019 C37.237,15.0803333 37.0223333,15.111 36.823,15.111 C36.179,15.111 35.7305,14.9231667 35.4775,14.5475 C35.2245,14.1718333 35.098,13.639 35.098,12.949 L35.098,12.949 L35.098,6.739 L38.111,6.739 L38.111,5.198 L35.098,5.198 L35.098,2.07 L33.511,2.07 L33.281,5.198 L31.533,5.313 L31.533,6.739 L33.189,6.739 L33.189,12.926 C33.189,13.478 33.2426667,13.984 33.35,14.444 C33.4573333,14.904 33.6375,15.295 33.8905,15.617 C34.1435,15.939 34.4731667,16.192 34.8795,16.376 C35.2858333,16.56 35.788,16.652 36.386,16.652 Z M43.7996667,16.652 C44.4896667,16.652 45.1451667,16.5216667 45.7661667,16.261 C46.3871667,16.0003333 46.9353333,15.6208333 47.4106667,15.1225 C47.886,14.6241667 48.2655,14.0108333 48.5491667,13.2825 C48.8328333,12.5541667 48.9746667,11.73 48.9746667,10.81 C48.9746667,9.87466667 48.8328333,9.04283333 48.5491667,8.3145 C48.2655,7.58616667 47.886,6.969 47.4106667,6.463 C46.9353333,5.957 46.3871667,5.57366667 45.7661667,5.313 C45.1451667,5.05233333 44.4896667,4.922 43.7996667,4.922 C43.1096667,4.922 42.4541667,5.05233333 41.8331667,5.313 C41.2121667,5.57366667 40.664,5.957 40.1886667,6.463 C39.7133333,6.969 39.3338333,7.58616667 39.0501667,8.3145 C38.7665,9.04283333 38.6246667,9.87466667 38.6246667,10.81 C38.6246667,11.73 38.7665,12.5541667 39.0501667,13.2825 C39.3338333,14.0108333 39.7133333,14.6241667 40.1886667,15.1225 C40.664,15.6208333 41.2121667,16.0003333 41.8331667,16.261 C42.4541667,16.5216667 43.1096667,16.652 43.7996667,16.652 Z M43.7996667,15.088 C43.3243333,15.088 42.8873333,14.9845 42.4886667,14.7775 C42.09,14.5705 41.7488333,14.2791667 41.4651667,13.9035 C41.1815,13.5278333 40.963,13.0793333 40.8096667,12.558 C40.6563333,12.0366667 40.5796667,11.454 40.5796667,10.81 C40.5796667,10.166 40.6563333,9.5795 40.8096667,9.0505 C40.963,8.5215 41.1815,8.06533333 41.4651667,7.682 C41.7488333,7.29866667 42.09,7.0035 42.4886667,6.7965 C42.8873333,6.5895 43.3243333,6.486 43.7996667,6.486 C44.275,6.486 44.712,6.5895 45.1106667,6.7965 C45.5093333,7.0035 45.8505,7.29866667 46.1341667,7.682 C46.4178333,8.06533333 46.6363333,8.5215 46.7896667,9.0505 C46.943,9.5795 47.0196667,10.166 47.0196667,10.81 C47.0196667,11.454 46.943,12.0366667 46.7896667,12.558 C46.6363333,13.0793333 46.4178333,13.5278333 46.1341667,13.9035 C45.8505,14.2791667 45.5093333,14.5705 45.1106667,14.7775 C44.712,14.9845 44.275,15.088 43.7996667,15.088 Z M52.8463333,16.376 L52.8463333,8.28 C53.8736667,7.13 54.809,6.555 55.6523333,6.555 C56.373,6.555 56.902,6.78883333 57.2393333,7.2565 C57.5766667,7.72416667 57.7453333,8.487 57.7453333,9.545 L57.7453333,9.545 L57.7453333,16.376 L59.6313333,16.376 L59.6313333,8.28 C60.6586667,7.13 61.594,6.555 62.4373333,6.555 C63.1426667,6.555 63.664,6.78883333 64.0013333,7.2565 C64.3386667,7.72416667 64.5073333,8.487 64.5073333,9.545 L64.5073333,9.545 L64.5073333,16.376 L66.3933333,16.376 L66.3933333,9.292 C66.3933333,7.85066667 66.1135,6.762 65.5538333,6.026 C64.9941667,5.29 64.1393333,4.922 62.9893333,4.922 C62.2993333,4.922 61.6591667,5.1175 61.0688333,5.5085 C60.4785,5.8995 59.892,6.417 59.3093333,7.061 C59.0793333,6.38633333 58.7228333,5.86116667 58.2398333,5.4855 C57.7568333,5.10983333 57.086,4.922 56.2273333,4.922 C55.5526667,4.922 54.9278333,5.10216667 54.3528333,5.4625 C53.7778333,5.82283333 53.245,6.27133333 52.7543333,6.808 L52.7543333,6.808 L52.6853333,6.808 L52.5243333,5.198 L50.9603333,5.198 L50.9603333,16.376 L52.8463333,16.376 Z M73.6,16.652 C74.3666667,16.652 75.049,16.537 75.647,16.307 C76.245,16.077 76.7893333,15.8086667 77.28,15.502 L77.28,15.502 L76.613,14.26 C76.199,14.5206667 75.7658333,14.7315 75.3135,14.8925 C74.8611667,15.0535 74.3666667,15.134 73.83,15.134 C72.7566667,15.134 71.8865,14.7813333 71.2195,14.076 C70.5525,13.3706667 70.1806667,12.4123333 70.104,11.201 L70.104,11.201 L77.648,11.201 C77.694,10.925 77.717,10.58 77.717,10.166 C77.717,9.36866667 77.6173333,8.648 77.418,8.004 C77.2186667,7.36 76.9311667,6.808 76.5555,6.348 C76.1798333,5.888 75.7121667,5.53533333 75.1525,5.29 C74.5928333,5.04466667 73.9603333,4.922 73.255,4.922 C72.611,4.922 71.99,5.05616667 71.392,5.3245 C70.794,5.59283333 70.2611667,5.98 69.7935,6.486 C69.3258333,6.992 68.9501667,7.60916667 68.6665,8.3375 C68.3828333,9.06583333 68.241,9.89 68.241,10.81 C68.241,11.73 68.379,12.5503333 68.655,13.271 C68.931,13.9916667 69.3105,14.6011667 69.7935,15.0995 C70.2765,15.5978333 70.8438333,15.9811667 71.4955,16.2495 C72.1471667,16.5178333 72.8486667,16.652 73.6,16.652 Z M76.061,9.959 L70.081,9.959 C70.1423333,9.39166667 70.2688333,8.8895 70.4605,8.4525 C70.6521667,8.0155 70.8936667,7.6475 71.185,7.3485 C71.4763333,7.0495 71.8021667,6.8195 72.1625,6.6585 C72.5228333,6.4975 72.9023333,6.417 73.301,6.417 C74.175,6.417 74.8535,6.71983333 75.3365,7.3255 C75.8195,7.93116667 76.061,8.809 76.061,9.959 L76.061,9.959 Z M81.4046667,16.376 L81.4046667,9.2 C81.788,8.24933333 82.2365,7.58233333 82.7501667,7.199 C83.2638333,6.81566667 83.7583333,6.624 84.2336667,6.624 C84.4636667,6.624 84.6553333,6.63933333 84.8086667,6.67 C84.962,6.70066667 85.1306667,6.74666667 85.3146667,6.808 L85.3146667,6.808 L85.6826667,5.152 C85.33,4.99866667 84.9313333,4.922 84.4866667,4.922 C83.8426667,4.922 83.2485,5.129 82.7041667,5.543 C82.1598333,5.957 81.696,6.51666667 81.3126667,7.222 L81.3126667,7.222 L81.2436667,7.222 L81.0826667,5.198 L79.5186667,5.198 L79.5186667,16.376 L81.4046667,16.376 Z M89.8323337,16.652 C90.491667,16.652 91.078167,16.5638333 91.5918337,16.3875 C92.1055003,16.2111667 92.5348337,15.9696667 92.8798337,15.663 C93.2248337,15.3563333 93.4855003,15.0036667 93.6618337,14.605 C93.838167,14.2063333 93.9263337,13.777 93.9263337,13.317 C93.9263337,12.7956667 93.8228337,12.351 93.6158337,11.983 C93.4088337,11.615 93.1443337,11.3045 92.8223337,11.0515 C92.5003337,10.7985 92.136167,10.5876667 91.7298337,10.419 C91.3235003,10.2503333 90.9210003,10.0893333 90.5223337,9.936 C90.2003337,9.81333333 89.8898337,9.6945 89.5908337,9.5795 C89.2918337,9.4645 89.0273337,9.33416667 88.7973337,9.1885 C88.5673337,9.04283333 88.3833337,8.87416667 88.2453337,8.6825 C88.1073337,8.49083333 88.0383337,8.26466667 88.0383337,8.004 C88.0383337,7.57466667 88.203167,7.199 88.5328337,6.877 C88.8625003,6.555 89.3800003,6.394 90.0853337,6.394 C90.5760003,6.394 91.0283337,6.486 91.4423337,6.67 C91.8563337,6.854 92.2550003,7.09166667 92.6383337,7.383 L92.6383337,7.383 L93.5353337,6.187 C93.1060003,5.83433333 92.596167,5.53533333 92.0058337,5.29 C91.4155003,5.04466667 90.767667,4.922 90.0623337,4.922 C89.4643337,4.922 88.927667,5.0025 88.4523337,5.1635 C87.9770003,5.3245 87.5745003,5.54683333 87.2448337,5.8305 C86.915167,6.11416667 86.662167,6.4515 86.4858337,6.8425 C86.3095003,7.2335 86.2213337,7.65133333 86.2213337,8.096 C86.2213337,8.57133333 86.3210003,8.97766667 86.5203337,9.315 C86.719667,9.65233333 86.9765003,9.9475 87.2908337,10.2005 C87.605167,10.4535 87.961667,10.6681667 88.3603337,10.8445 C88.7590003,11.0208333 89.157667,11.178 89.5563337,11.316 C89.8630003,11.4386667 90.169667,11.5613333 90.4763337,11.684 C90.7830003,11.8066667 91.055167,11.9485 91.2928337,12.1095 C91.5305003,12.2705 91.7260003,12.4583333 91.8793337,12.673 C92.032667,12.8876667 92.1093337,13.1406667 92.1093337,13.432 C92.1093337,13.9226667 91.9253337,14.3366667 91.5573337,14.674 C91.1893337,15.0113333 90.6373337,15.18 89.9013337,15.18 C89.226667,15.18 88.6325003,15.0573333 88.1188337,14.812 C87.605167,14.5666667 87.1030003,14.2446667 86.6123337,13.846 L86.6123337,13.846 L85.6693337,15.111 C86.2060003,15.5556667 86.834667,15.9236667 87.5553337,16.215 C88.2760003,16.5063333 89.0350003,16.652 89.8323337,16.652 Z M101.370667,16.376 L101.370667,10.396 L104.084667,10.396 C104.912667,10.396 105.667834,10.3001667 106.350167,10.1085 C107.0325,9.91683333 107.619,9.62933333 108.109667,9.246 C108.600334,8.86266667 108.979834,8.37966667 109.248167,7.797 C109.5165,7.21433333 109.650667,6.52433333 109.650667,5.727 C109.650667,4.899 109.5165,4.20133333 109.248167,3.634 C108.979834,3.06666667 108.604167,2.6105 108.121167,2.2655 C107.638167,1.9205 107.051667,1.67133333 106.361667,1.518 C105.671667,1.36466667 104.912667,1.288 104.084667,1.288 L104.084667,1.288 L99.461667,1.288 L99.461667,16.376 L101.370667,16.376 Z M103.854667,8.832 L101.370667,8.832 L101.370667,2.829 L103.854667,2.829 C105.158,2.829 106.131667,3.03983333 106.775667,3.4615 C107.419667,3.88316667 107.741667,4.63833333 107.741667,5.727 C107.741667,6.80033333 107.4235,7.58616667 106.787167,8.0845 C106.150834,8.58283333 105.173334,8.832 103.854667,8.832 L103.854667,8.832 Z M115.362334,16.652 C116.052334,16.652 116.707834,16.5216667 117.328834,16.261 C117.949834,16.0003333 118.498,15.6208333 118.973334,15.1225 C119.448667,14.6241667 119.828167,14.0108333 120.111834,13.2825 C120.3955,12.5541667 120.537334,11.73 120.537334,10.81 C120.537334,9.87466667 120.3955,9.04283333 120.111834,8.3145 C119.828167,7.58616667 119.448667,6.969 118.973334,6.463 C118.498,5.957 117.949834,5.57366667 117.328834,5.313 C116.707834,5.05233333 116.052334,4.922 115.362334,4.922 C114.672334,4.922 114.016834,5.05233333 113.395834,5.313 C112.774834,5.57366667 112.226667,5.957 111.751334,6.463 C111.276,6.969 110.8965,7.58616667 110.612834,8.3145 C110.329167,9.04283333 110.187334,9.87466667 110.187334,10.81 C110.187334,11.73 110.329167,12.5541667 110.612834,13.2825 C110.8965,14.0108333 111.276,14.6241667 111.751334,15.1225 C112.226667,15.6208333 112.774834,16.0003333 113.395834,16.261 C114.016834,16.5216667 114.672334,16.652 115.362334,16.652 Z M115.362334,15.088 C114.887,15.088 114.45,14.9845 114.051334,14.7775 C113.652667,14.5705 113.3115,14.2791667 113.027834,13.9035 C112.744167,13.5278333 112.525667,13.0793333 112.372334,12.558 C112.219,12.0366667 112.142334,11.454 112.142334,10.81 C112.142334,10.166 112.219,9.5795 112.372334,9.0505 C112.525667,8.5215 112.744167,8.06533333 113.027834,7.682 C113.3115,7.29866667 113.652667,7.0035 114.051334,6.7965 C114.45,6.5895 114.887,6.486 115.362334,6.486 C115.837667,6.486 116.274667,6.5895 116.673334,6.7965 C117.072,7.0035 117.413167,7.29866667 117.696834,7.682 C117.9805,8.06533333 118.199,8.5215 118.352334,9.0505 C118.505667,9.5795 118.582334,10.166 118.582334,10.81 C118.582334,11.454 118.505667,12.0366667 118.352334,12.558 C118.199,13.0793333 117.9805,13.5278333 117.696834,13.9035 C117.413167,14.2791667 117.072,14.5705 116.673334,14.7775 C116.274667,14.9845 115.837667,15.088 115.362334,15.088 Z M124.409,16.376 L124.409,9.2 C124.792334,8.24933333 125.240834,7.58233333 125.7545,7.199 C126.268167,6.81566667 126.762667,6.624 127.238,6.624 C127.468,6.624 127.659667,6.63933333 127.813,6.67 C127.966334,6.70066667 128.135,6.74666667 128.319,6.808 L128.319,6.808 L128.687,5.152 C128.334334,4.99866667 127.935667,4.922 127.491,4.922 C126.847,4.922 126.252834,5.129 125.7085,5.543 C125.164167,5.957 124.700334,6.51666667 124.317,7.222 L124.317,7.222 L124.248,7.222 L124.087,5.198 L122.523,5.198 L122.523,16.376 L124.409,16.376 Z M134.464667,16.652 C134.817334,16.652 135.173834,16.6098333 135.534167,16.5255 C135.894501,16.4411667 136.228001,16.3453333 136.534667,16.238 L136.534667,16.238 L136.166667,14.812 C135.982667,14.8886667 135.775667,14.9576667 135.545667,15.019 C135.315667,15.0803333 135.101001,15.111 134.901667,15.111 C134.257667,15.111 133.809167,14.9231667 133.556167,14.5475 C133.303167,14.1718333 133.176667,13.639 133.176667,12.949 L133.176667,12.949 L133.176667,6.739 L136.189667,6.739 L136.189667,5.198 L133.176667,5.198 L133.176667,2.07 L131.589667,2.07 L131.359667,5.198 L129.611667,5.313 L129.611667,6.739 L131.267667,6.739 L131.267667,12.926 C131.267667,13.478 131.321334,13.984 131.428667,14.444 C131.536001,14.904 131.716167,15.295 131.969167,15.617 C132.222167,15.939 132.551834,16.192 132.958167,16.376 C133.364501,16.56 133.866667,16.652 134.464667,16.652 Z M140.084334,16.652 C140.774334,16.652 141.429834,16.4948333 142.050834,16.1805 C142.671834,15.8661667 143.250667,15.4866667 143.787334,15.042 L143.787334,15.042 L143.833334,15.042 L143.994334,16.376 L145.558334,16.376 L145.558334,9.522 C145.558334,8.12666667 145.251667,7.01116667 144.638334,6.1755 C144.025001,5.33983333 143.036001,4.922 141.671334,4.922 C140.766667,4.922 139.938667,5.07916667 139.187334,5.3935 C138.436001,5.70783333 137.799667,6.03366667 137.278334,6.371 L137.278334,6.371 L138.037334,7.682 C138.482001,7.37533333 138.984167,7.09933333 139.543834,6.854 C140.103501,6.60866667 140.713001,6.486 141.372334,6.486 C141.832334,6.486 142.208001,6.5665 142.499334,6.7275 C142.790667,6.8885 143.024501,7.09933333 143.200834,7.36 C143.377167,7.62066667 143.499834,7.91966667 143.568834,8.257 C143.637834,8.59433333 143.672334,8.93933333 143.672334,9.292 C141.280334,9.55266667 139.536167,10.0088333 138.439834,10.6605 C137.343501,11.3121667 136.795334,12.2513333 136.795334,13.478 C136.795334,14.49 137.105834,15.272 137.726834,15.824 C138.347834,16.376 139.133667,16.652 140.084334,16.652 Z M140.613334,15.134 C140.061334,15.134 139.597501,14.996 139.221834,14.72 C138.846167,14.444 138.658334,13.984 138.658334,13.34 C138.658334,12.9873333 138.742667,12.6615 138.911334,12.3625 C139.080001,12.0635 139.359834,11.799 139.750834,11.569 C140.141834,11.339 140.659334,11.1396667 141.303334,10.971 C141.947334,10.8023333 142.737001,10.6566667 143.672334,10.534 L143.672334,10.534 L143.672334,13.639 C143.135667,14.1296667 142.625834,14.5015 142.142834,14.7545 C141.659834,15.0075 141.150001,15.134 140.613334,15.134 Z M150.166001,16.652 C150.426667,16.652 150.641334,16.6366667 150.810001,16.606 C150.978667,16.5753333 151.124334,16.5293333 151.247001,16.468 L151.247001,16.468 L150.994001,15.042 C150.886667,15.0726667 150.806167,15.088 150.752501,15.088 L150.752501,15.088 L150.580001,15.088 C150.442001,15.088 150.319334,15.0266667 150.212001,14.904 C150.104667,14.7813333 150.051001,14.5666667 150.051001,14.26 L150.051001,14.26 L150.051001,0 L148.165001,0 L148.165001,14.122 C148.165001,14.95 148.318334,15.5786667 148.625001,16.008 C148.931667,16.4373333 149.445334,16.652 150.166001,16.652 Z" id="CustomersPortal" fill="#707070" fill-rule="nonzero"></path>
    </g>
</svg>